The top 200 words used by Shakespeare excluding words in the lists:
thy	4033
thee	3178
lord	3062
king	2869
good	2832
sir	2762
enter	2350
love	2108
ill	2024
hath	1942
man	1875
tis	1405
time	1296
speak	1168
mine	1165
duke	1071
exeunt	1035
heart	1012
exit	984
queen	946
doth	940
art	915
great	914
day	901
hear	873
men	869
death	868
lady	866
hand	850
life	846
father	841
true	818
sweet	800
scene	798
god	794
night	792
master	777
fair	768
ay	768
prince	743
pray	734
son	703
long	694
eyes	690
blood	665
leave	656
poor	629
fear	625
heaven	621
till	617
noble	615
hast	584
grace	577
honour	573
gloucester	573
stand	570
brother	566
house	565
henry	563
call	555
john	544
bear	543
peace	538
head	534
dead	533
find	528
france	527
caesar	520
gentleman	519
wife	515
live	514
antony	509
madam	508
word	501
richard	501
lords	498
york	486
friends	482
brutus	480
die	475
set	471
electronic	469
young	465
fool	465
hold	463
place	457
thine	455
copies	453
dear	452
mistress	451
distributed	447
service	445
bring	445
full	444
falstaff	444
soul	442
friend	437
eye	430
dost	429
stay	427
face	422
servant	422
boy	422
daughter	416
gods	416
tongue	413
warwick	411
faith	402
answer	381
thought	378
gentle	371
marry	366
mother	362
iago	362
ere	361
mind	359
ham	358
hope	357
matter	356
thing	355
william	353
sword	352
farewell	352
clown	350
heard	347
nature	345
rest	345
things	338
bid	337
woman	334
truth	331
meet	326
lie	326
rome	326
othello	325
project	324
morrow	322
hands	319
fortune	318
news	318
fellow	318
edward	318
gutenberg	311
state	311
follow	310
bed	308
timon	308
wilt	307
power	307
play	306
shame	304
earth	304
hour	301
messenger	300
fall	299
false	299
pardon	299
shalt	295
husband	291
ye	291
honest	289
works	286
loves	286
kings	285
tears	284
macbeth	284
kind	282
hell	282
fight	281
reason	281
lay	279
fathers	278
youth	277
ford	276
shakespeare	272
light	269
turn	267
fire	266
england	265
wit	264
spirit	264
rosalind	264
war	263
cleopatra	263
send	261
hot	261
court	261
arms	261
lucius	261
crown	260
cousin	260
high	259
break	259
provided	257
majesty	257
body	257
lost	257
soldier	257
sleep	256
mad	256
