Data points:
A1:	(10, 4)
A2:	(11, 5)
A3:	(10, 6)
A4:	(9, 6)
A5:	(6, 2)
A6:	(6, 4)
A7:	(7, 2)
A8:	(5, 3)
A9:	(6, 10)
A10:	(5, 10)
A11:	(5, 12)
A12:	(1, 7)
A13:	(1, 8)
A14:	(2, 9)
A15:	(2, 9)

~~~~~ Iteration 1 ~~~~~
Centroids:  [(10, 4), (6, 2), (6, 10), (1, 7)]
Distances:  [9.433981132056603, 8.06225774829855, 4.123105625617661, 2.23606797749979]
Cluster 0:  [(10, 4), (11, 5), (10, 6), (9, 6)]
Cluster 1:  [(6, 2), (6, 4), (7, 2), (5, 3)]
Cluster 2:  [(6, 10), (5, 10), (5, 12)]
Cluster 3:  [(1, 7), (1, 8), (2, 9), (2, 9)]
New centroids:  [(10.0, 5.25), (6.0, 2.75), (5.333333333333333, 10.666666666666666), (1.5, 8.25)]

~~~~~ Iteration 2 ~~~~~
Centroids:  [(10.0, 5.25), (6.0, 2.75), (5.333333333333333, 10.666666666666666), (1.5, 8.25)]
Distances:  [8.835298523536146, 7.420411039827915, 3.726779962499649, 0.9013878188659973]
Cluster 0:  [(10, 4), (11, 5), (10, 6), (9, 6)]
Cluster 1:  [(6, 2), (6, 4), (7, 2), (5, 3)]
Cluster 2:  [(6, 10), (5, 10), (5, 12)]
Cluster 3:  [(1, 7), (1, 8), (2, 9), (2, 9)]
New centroids:  [(10.0, 5.25), (6.0, 2.75), (5.333333333333333, 10.666666666666666), (1.5, 8.25)]


No difference between Iteration 2 and Iteration 1
No more iteration is needed
~~~~~ End ~~~~~
